<?xml version="1.0" standalone="no"?>
<!DOCTYPE svg PUBLIC "-//W3C//DTD SVG 1.1//EN" "http://www.w3.org/Graphics/SVG/1.1/DTD/svg11.dtd" >
<!--
2018-2-16: Created with FontForge (http://fontforge.org)
-->
<svg xmlns="http://www.w3.org/2000/svg" xmlns:xlink="http://www.w3.org/1999/xlink" version="1.1">
<metadata>
Created by FontForge 20160405 at Fri Feb 16 16:28:50 2018
 By Apache
Copyright (c) 2018, Apache
</metadata>
<defs>
<font id="Flaticon" horiz-adv-x="512" >
  <font-face 
    font-family="Flaticon"
    font-weight="400"
    font-stretch="normal"
    units-per-em="512"
    panose-1="2 0 5 3 0 0 0 0 0 0"
    ascent="448"
    descent="-64"
    bbox="-0.000732422 -64 512 448.004"
    underline-thickness="25.6"
    underline-position="-51.2"
    unicode-range="U+0020-F106"
  />
    <missing-glyph />
    <glyph glyph-name="space" unicode=" " horiz-adv-x="200" 
 />
    <glyph glyph-name="uniF102" unicode="&#xf102;" 
d="M264.181 371.091c93.6465 0 169.562 -75.915 169.562 -169.561c0 -93.6465 -75.915 -169.562 -169.562 -169.562c-93.6455 0 -169.561 75.915 -169.561 169.562c0 93.6455 75.915 169.561 169.561 169.561zM264.18 72.8711c70.9434 0 128.658 57.7158 128.658 128.658
c0 70.9414 -57.7158 128.657 -128.658 128.657c-70.9414 0 -128.657 -57.7158 -128.657 -128.657c0 -70.9424 57.7158 -128.658 128.657 -128.658zM264.18 295.701c51.9277 0 94.1709 -42.2451 94.1709 -94.1709c0 -51.9268 -42.2441 -94.1709 -94.1709 -94.1709
c-51.9258 0 -94.1709 42.2441 -94.1709 94.1709c0 51.9258 42.2451 94.1709 94.1709 94.1709zM501.315 187.313c6.43359 -66.4434 10.6846 -159.386 10.6846 -170.268c0 -17.1406 -10.5508 -31.0381 -23.5664 -31.0381c-13.0146 0 -23.5654 13.8965 -23.5654 31.0381
c0 10.8809 4.25098 103.808 10.6836 170.251h-6.52539c-8.64648 0 -15.6543 7.00879 -15.6543 15.6543v75.3779c0 42.5469 13.9141 83.9268 39.6221 117.83c1.20312 1.58398 3.28223 2.22461 5.16602 1.59082c1.88574 -0.634766 3.15527 -2.40234 3.15527 -4.38965v-206.047
zM68.417 228.157c-8.48438 -5.13965 -13.2207 -14.7588 -12.126 -24.6182c7.3623 -66.3584 12.3633 -174.693 12.3633 -186.494c0 -17.1406 -10.5518 -31.0381 -23.5664 -31.0381s-23.5654 13.8965 -23.5654 31.0381c0 11.8008 5 120.136 12.3623 186.494
c1.09375 9.86426 -3.6377 19.4756 -12.126 24.6172c-13.043 7.90039 -21.7588 22.2236 -21.7588 38.5859l6.46289 105.622c0.246094 4.02539 3.58301 7.16504 7.61719 7.16504c4.36035 0 7.83789 -3.65332 7.62207 -8.01074l-4.20117 -84.709
c0 -4.75977 3.86035 -8.62012 8.62109 -8.62012c4.75977 0 8.62109 3.8584 8.62109 8.62012l2.09863 84.6748c0.112305 4.47363 3.77051 8.04395 8.24707 8.04395c4.47754 0 8.13574 -3.56934 8.24707 -8.04395l2.09863 -84.6748
c0 -4.75977 3.86035 -8.62012 8.62109 -8.62012s8.62109 3.8584 8.62109 8.62012l-4.20117 84.709c-0.216797 4.35547 3.25977 8.01074 7.62207 8.01074c4.03418 0 7.37109 -3.13965 7.61816 -7.16504l6.45996 -105.621c0 -16.3623 -8.7168 -30.6865 -21.7588 -38.5859z" />
    <glyph glyph-name="uniF104" unicode="&#xf104;" 
d="M105.271 288.099l-2.96484 5.67676l-30.5371 3.05176v28.1387c0.142578 0.00585938 0.27832 0.015625 0.425781 0.015625h28.7588l16.9141 -17.5479l19.3818 57.7559l0.165039 0.422852s24.3281 22.1992 120.032 22.1992
c0.53125 0 1.04883 -0.00488281 1.5791 -0.00683594c0.526367 0.00292969 1.04492 0.00683594 1.57812 0.00683594c95.7041 0 120.033 -22.1992 120.033 -22.1992l0.164062 -0.422852l19.3818 -57.7559l16.917 17.5479h28.7559
c0.147461 0 0.283203 -0.00976562 0.425781 -0.015625v-28.1387l-30.5361 -3.05176l-2.96582 -5.6748c6.08594 -5.96777 9.10449 -15.8887 9.00879 -29.2441c-19.2979 5.51953 -49.4766 10.5352 -95.4648 10.5352l-1.5498 -0.00585938l-1.60938 0.00585938
c-85.2441 0 -116.194 -17.2295 -124.136 -22.9678l1.07324 13.9863l-66.4141 3.64844l4.98242 -25.8584l55.0801 0.467773l-1.06836 -3.16016c-1.27246 0.00683594 -2.54785 0.0126953 -3.84473 0.0126953l-1.54883 -0.00585938l-1.60938 0.00585938
c-38.7598 0 -66.2881 -3.56445 -85.54 -7.98828c-0.249023 2.69336 -0.5625 4.7627 -0.799805 5.88574c-5.59668 26.5264 -3.54297 45.3877 5.93164 54.6807zM154.295 356.415l-20.501 -61.0869h125.231h125.231l-20.501 61.0869
c-2.60352 1.58398 -9.14844 4.56445 -24.2197 7.25c-19.3359 3.44629 -45.8926 5.19238 -78.9326 5.19238c-0.532227 0 -1.05078 -0.000976562 -1.57812 -0.00292969c-0.525391 0.00195312 -1.04688 0.00292969 -1.5791 0.00292969
c-33.04 0 -59.5957 -1.74609 -78.9326 -5.19238c-15.0732 -2.68555 -21.6162 -5.66602 -24.2188 -7.25zM343.978 132.409l-2.96191 -5.67578c9.47363 -9.29297 11.5283 -28.1543 5.93262 -54.6807c-0.436523 -2.05371 -1.125 -7.24707 -1.20117 -13.6777v-60.6953
c0 -0.825195 -0.667969 -1.49219 -1.49219 -1.49219h-47.5674c-0.824219 0 -1.49121 0.666992 -1.49121 1.49219l-0.0078125 48.5957h-107.931h-107.931l-0.00683594 -48.5957c0 -0.825195 -0.667969 -1.49219 -1.49121 -1.49219h-47.5674
c-0.823242 0 -1.49023 0.666992 -1.49023 1.49219v60.6953c-0.078125 6.43164 -0.767578 11.625 -1.20117 13.6777c-5.59668 26.5264 -3.54297 45.3877 5.93164 54.6807l-2.96484 5.67578l-30.5371 3.0498v28.1396
c0.143555 0.00488281 0.279297 0.0146484 0.426758 0.0146484h28.7559l16.916 -17.5459l19.3809 57.7549l0.166016 0.421875s24.3281 22.2002 120.032 22.2002c0.532227 0 1.0498 -0.00585938 1.5791 -0.00683594c0.52832 0.00195312 1.0459 0.00683594 1.5791 0.00683594
c95.7041 0 120.031 -22.2002 120.031 -22.2002l0.166016 -0.421875l19.3818 -57.7549l16.917 17.5459h28.7559c0.147461 0 0.286133 -0.00976562 0.427734 -0.0146484v-28.1396zM126.67 77.3418l1.66406 21.7021l-66.4141 3.64941l4.98242 -25.8594zM62.0264 133.961
h125.231h125.231l-20.501 61.0889c-2.60352 1.58398 -9.14648 4.5625 -24.2188 7.25c-19.3359 3.44531 -45.8926 5.19238 -78.9326 5.19238c-0.532227 0 -1.05176 -0.00195312 -1.5791 -0.00292969c-0.527344 0.000976562 -1.04688 0.00292969 -1.5791 0.00292969
c-33.04 0 -59.5957 -1.74707 -78.9326 -5.19238c-15.0723 -2.6875 -21.6162 -5.66602 -24.2188 -7.25zM307.613 76.834l4.98242 25.8594l-66.4141 -3.64941l1.66406 -21.7021zM512 169.329l-30.5342 -3.05176l-2.96191 -5.67578
c9.47363 -9.29395 11.5283 -28.1523 5.93066 -54.6797c-0.433594 -2.05566 -1.12305 -7.24805 -1.20117 -13.6777v-60.6963c0 -0.822266 -0.666992 -1.49121 -1.49219 -1.49121h-47.5674c-0.824219 0 -1.49121 0.667969 -1.49121 1.49121l-0.00683594 48.5957h-75.0459
c2.83984 18.7754 1.58398 33.5518 -3.7793 44.1289l30.2451 3.13379l1.23535 -16.1953l59.7676 -0.507812l4.98242 25.8574l-66.6582 -3.64844l0.167969 30.6865l-0.0214844 4.23242h66.4062l-20.5029 61.0869c-2.60156 1.58398 -9.14453 4.56445 -24.2178 7.25
c-19.3359 3.44629 -45.8926 5.19336 -78.9326 5.19336c-0.530273 0 -1.05078 -0.000976562 -1.57812 -0.00292969c-0.525391 0.00195312 -1.04688 0.00292969 -1.57812 0.00292969c-33.0391 0 -59.5967 -1.74707 -78.9326 -5.19336
c-4.46973 -0.796875 -8.17285 -1.61914 -11.2627 -2.42188c-9.25781 0.802734 -19.4873 1.37305 -30.7812 1.625l0.779297 2.32129l0.165039 0.421875s24.3271 22.1992 120.032 22.1992c0.530273 0 1.04883 -0.00488281 1.57812 -0.00585938
c0.526367 0.00195312 1.04492 0.00585938 1.57812 0.00585938c95.7041 0 120.031 -22.1992 120.031 -22.1992l0.166016 -0.421875l19.3818 -57.7568l16.915 17.5488h28.7578c0.145508 0 0.283203 -0.0107422 0.425781 -0.015625v-28.1396z" />
    <glyph glyph-name="uniF105" unicode="&#xf105;" 
d="M240.025 151.348c0 -15.1748 -3.62109 -29.5205 -10.0361 -42.2227l-83.9531 -173.125l-83.9375 173.098c-6.4248 12.708 -10.0488 27.0635 -10.0488 42.25c0 51.8252 42.1611 93.9873 93.9863 93.9873c51.8262 0 93.9893 -42.1621 93.9893 -93.9873zM146.036 99.335
c28.6807 0 52.0127 23.334 52.0127 52.0127c0 28.6797 -23.332 52.0127 -52.0127 52.0127c-28.6787 0 -52.0127 -23.333 -52.0127 -52.0127c0 -28.6787 23.334 -52.0127 52.0127 -52.0127zM412.355 448c26.2422 0 47.5938 -21.3496 47.5938 -47.5928
c0 -7.68457 -1.83398 -14.9492 -5.08203 -21.3809l-42.5117 -87.666l-42.5039 87.6523c-3.25293 6.43652 -5.08887 13.7051 -5.08887 21.3955c0 26.2422 21.3506 47.5918 47.5928 47.5918zM412.355 374.069c14.5215 0 26.3379 11.8154 26.3379 26.3389
c0 14.5225 -11.8164 26.3379 -26.3379 26.3379c-14.5225 0 -26.3379 -11.8154 -26.3379 -26.3379c0 -14.5234 11.8154 -26.3389 26.3379 -26.3389zM370.904 139.243c1.93066 -9.07812 2.80859 -18.5059 3.18848 -27.7549
c1.12109 -27.0781 -4.14453 -54.4043 -17.2871 -78.2607c-12.5625 -22.8076 -31.4336 -41.54 -53.3779 -55.3867c-21.9639 -13.8613 -46.4756 -23.2129 -71.6279 -29.4043c-21.373 -5.26074 -43.2803 -8.2666 -65.2441 -9.63086l44.5146 91.791
c1.18652 0.103516 2.37402 0.209961 3.56055 0.334961c24.9307 2.56738 51.3516 8.9541 71.293 24.9297c8.72266 6.98926 15.7754 15.832 20.4492 25.999c5.02637 10.9365 6.78613 22.9814 8.00879 34.9023c0.389648 3.80859 0.181641 12.5986 0.174805 12.6797
c0.0126953 -0.0117188 0.0146484 -0.0273438 0.0078125 -0.0488281c-0.227539 2.7998 -0.436523 5.60059 -0.776367 8.38574c-0.788086 6.18555 -2.07812 12.292 -3.56445 18.3447c-3.08496 12.5605 -8.0918 24.8936 -8.50098 37.8516
c-2.04102 64.6406 81.6768 93.9004 97.9561 100.282c1.29395 -2.23633 2.65234 -4.43164 4.05469 -6.60449c-11.3184 -8.00684 -22.1377 -16.7012 -31.9473 -26.4268c-5.09473 -5.05176 -9.92383 -10.4463 -14.0527 -16.3252
c-2.35742 -3.35645 -14.8984 -21.8252 -7.62891 -43.9561c3.88965 -11.8398 8.96777 -23.2793 13.2021 -34.9854c3.15918 -8.7373 5.66699 -17.6357 7.59766 -26.7168z" />
    <glyph glyph-name="uniF106" unicode="&#xf106;" 
d="M0 240v16h512v-16c0 -29.7812 -20.4385 -54.5938 -48 -61.75v-210.25h32c8.875 0 16 -7.15625 16 -16s-7.125 -16 -16 -16h-480c-8.81152 0 -16 7.15625 -16 16s7.18652 16 16 16h32v210.25c-27.5615 7.15625 -48 31.9688 -48 61.75zM320 176
c-35.3115 0 -64 28.6562 -64 64c0 -35.3438 -28.625 -64 -64 -64v-208h240v210.25c-27.5615 7.15625 -48 31.9688 -48 61.75c0 -35.3438 -28.625 -64 -64 -64zM176 178.25c-27.5615 7.15625 -48 31.9688 -48 61.75c0 -29.7812 -20.4365 -54.5938 -48 -61.75v-210.25h96
v210.25zM448 400l64 -128h-512l64 128h384zM135.188 364.437c1.93652 3.93848 0.375 8.75 -3.5957 10.7197c-3.9375 1.93652 -8.71875 0.34375 -10.7188 -3.59473l-32 -64c-2 -3.9375 -0.375 -8.75 3.5625 -10.7188c1.15723 -0.59375 2.375 -0.84375 3.56348 -0.84375
c2.93848 0 5.75 1.625 7.18848 4.4375zM199.188 364.437c1.93652 3.93848 0.375 8.75 -3.5957 10.7197c-3.90625 1.93652 -8.71875 0.34375 -10.7188 -3.59473l-32 -64c-2 -3.9375 -0.375 -8.75 3.5625 -10.7188c1.15723 -0.59375 2.375 -0.84375 3.56348 -0.84375
c2.93848 0 5.75 1.625 7.18848 4.4375zM264 304v64c0 4.43652 -3.56152 8 -8 8c-4.40625 0 -8 -3.56152 -8 -8v-64c0 -4.43652 3.59375 -8 8 -8c4.43848 0 8 3.56152 8 8zM355.875 297c3.875 2.09375 5.25 6.96875 3.18848 10.8438l-35 64
c-2.125 3.90625 -7.0625 5.28125 -10.875 3.15625c-3.87695 -2.09375 -5.31348 -6.96875 -3.18848 -10.8438l35 -64c1.43848 -2.65625 4.18848 -4.15625 7 -4.15625c1.31348 0 2.625 0.311523 3.875 1zM419.562 296.844c4 1.96777 5.56348 6.78125 3.625 10.7197l-32 64
c-2 3.96875 -6.875 5.5625 -10.75 3.59375c-3.93652 -1.96875 -5.56152 -6.78125 -3.56152 -10.7188l32 -64c1.375 -2.81348 4.18652 -4.43848 7.125 -4.43848c1.25 0 2.43848 0.25 3.56152 0.84375zM136 61.5615v36.875c-4.68848 2.8125 -8 7.68848 -8 13.5625
c0 8.84375 7.18848 16 16 16c8.875 0 16 -7.15625 16 -16c0 -5.875 -3.28125 -10.75 -8 -13.5625v-36.875c4.71875 -2.8125 8 -7.6875 8 -13.5625c0 -8.84375 -7.125 -16 -16 -16c-8.81348 0 -16 7.15625 -16 16c0 5.87598 3.31348 10.751 8 13.5625zM64 432
c0 8.84375 7.18848 16 16 16h352c8.875 0 16 -7.15625 16 -16s-7.125 -16 -16 -16h-352c-8.81152 0 -16 7.15625 -16 16zM280.438 90.3438l-11.3125 11.3135l45.25 45.25l11.3125 -11.3135zM280.438 45.0938l-11.3125 11.3135l90.5 90.5l11.3125 -11.3135zM359.625 101.656
l11.3115 -11.3135l-45.25 -45.25l-11.3115 11.3135z" />
    <glyph glyph-name="uniF101" unicode="&#xf101;" 
d="M415.349 382.181c4.31738 0 8.05078 -1.57617 11.2129 -4.72754c3.15234 -3.15625 4.7334 -6.89062 4.7334 -11.2012v-414.318c0 -4.30859 -1.58105 -8.04395 -4.7334 -11.2002c-3.15625 -3.15234 -6.89551 -4.7334 -11.207 -4.7334h-106.471
c0.393555 1.83008 0.625977 3.71582 0.625977 5.69824v26.1768v46.3828c0 7.23535 -2.65234 13.5049 -7.94531 18.8154c-5.30371 5.26953 -11.5742 7.93359 -18.8145 7.93359h-53.5127c-7.25098 0 -13.5215 -2.65723 -18.8135 -7.93359
c-5.30469 -5.31152 -7.94043 -11.5811 -7.94043 -18.8154v-46.3828v-26.1758c0 -1.98145 0.238281 -3.86719 0.626953 -5.69824h-106.466c-4.32227 0 -8.05664 1.58105 -11.208 4.7334c-3.15723 3.15137 -4.73242 6.89062 -4.73242 11.2002v414.317
c0 4.30566 1.58105 8.03906 4.73242 11.2012c3.15137 3.15137 6.8916 4.72754 11.208 4.72754h75.623v-31.8691v-11.3291c0 -11.3193 4.23828 -21.5322 12.2617 -29.5508c8.01758 -8.01074 18.2314 -12.25 29.5391 -12.25h83.8564
c11.3076 0 21.5264 4.23926 29.5449 12.2559c8.01758 8.0127 12.2568 18.2256 12.2568 29.5449v11.3291v31.8691h75.6221zM388.479 81.2158c1.91406 1.90625 2.87402 4.17676 2.87402 6.7959v19.3359c0 2.61328 -0.959961 4.87598 -2.87402 6.79492
c-1.91504 1.90918 -4.17773 2.87598 -6.79688 2.87598h-19.335c-2.62598 0 -4.88965 -0.966797 -6.80371 -2.87598c-1.91309 -1.91309 -2.86816 -4.18164 -2.86816 -6.79492v-19.3359c0 -2.61914 0.955078 -4.88184 2.86816 -6.7959
c1.91406 -1.91504 4.18457 -2.86816 6.80371 -2.86816h19.335c2.61914 0 4.88184 0.953125 6.79688 2.86816zM391.354 30.0049c0 2.61328 -0.959961 4.87695 -2.87402 6.7959c-1.91504 1.9082 -4.17773 2.86816 -6.79688 2.86816h-19.335
c-2.62598 0 -4.88965 -0.959961 -6.80371 -2.86816c-1.91309 -1.91406 -2.86816 -4.18164 -2.86816 -6.7959v-19.335c0 -2.62402 0.955078 -4.88965 2.86816 -6.79785c1.91406 -1.91895 4.18457 -2.86816 6.80371 -2.86816h19.335
c2.61914 0 4.88184 0.949219 6.79688 2.86816c1.91406 1.90332 2.87402 4.17285 2.87402 6.79785v19.335zM388.479 158.563c1.91406 1.9043 2.87402 4.17188 2.87402 6.7959v19.3301c0 2.61914 -0.959961 4.88379 -2.87402 6.79785
c-1.91504 1.91211 -4.17773 2.87207 -6.79688 2.87207h-19.335c-2.62598 0 -4.88965 -0.958984 -6.80371 -2.87207c-1.91309 -1.90918 -2.86816 -4.17871 -2.86816 -6.79785v-19.3301c0 -2.62402 0.955078 -4.8877 2.86816 -6.7959
c1.91406 -1.91895 4.18457 -2.87402 6.80371 -2.87402h19.335c2.61914 0 4.88184 0.955078 6.79688 2.87402zM388.479 235.906c1.91406 1.90332 2.87402 4.17285 2.87402 6.79688v19.3359c0 2.6123 -0.959961 4.87598 -2.87402 6.7959
c-1.91504 1.90918 -4.17773 2.86914 -6.79688 2.86914h-19.335c-2.62598 0 -4.88965 -0.959961 -6.80371 -2.86914c-1.91309 -1.91309 -2.86816 -4.18359 -2.86816 -6.7959v-19.3359c0 -2.62402 0.955078 -4.88867 2.86816 -6.79688
c1.91406 -1.91895 4.18457 -2.87402 6.80371 -2.87402h19.335c2.61914 0 4.88184 0.954102 6.79688 2.87402zM388.479 313.25c1.91406 1.90234 2.87402 4.17188 2.87402 6.7959v19.3369c0 2.61328 -0.959961 4.87695 -2.87402 6.79688
c-1.91504 1.9082 -4.17773 2.86816 -6.79688 2.86816h-19.335c-2.62598 0 -4.88965 -0.959961 -6.80371 -2.86816c-1.91309 -1.91504 -2.86816 -4.18457 -2.86816 -6.79688v-19.3369c0 -2.62402 0.955078 -4.8877 2.86816 -6.7959
c1.91406 -1.9209 4.18457 -2.86914 6.80371 -2.86914h19.335c2.61914 0 4.88184 0.948242 6.79688 2.86914zM275.333 262.039v-19.3359c0 -2.62402 0.954102 -4.88867 2.86816 -6.79688c1.91406 -1.91895 4.17773 -2.87402 6.79688 -2.87402h19.335
c2.61426 0 4.87793 0.954102 6.79688 2.87402c1.91406 1.90332 2.86816 4.17285 2.86816 6.79688v19.3359c0 2.6123 -0.954102 4.87598 -2.86816 6.7959c-1.91895 1.90918 -4.18262 2.86914 -6.79688 2.86914h-19.335c-2.61914 0 -4.88281 -0.959961 -6.79688 -2.86914
c-1.91406 -1.91309 -2.86816 -4.18359 -2.86816 -6.7959zM275.333 184.69v-19.3301c0 -2.62402 0.954102 -4.8877 2.86816 -6.7959c1.91406 -1.91895 4.17773 -2.87402 6.79688 -2.87402h19.335c2.61426 0 4.87793 0.955078 6.79688 2.87402
c1.91406 1.90332 2.86816 4.1709 2.86816 6.7959v19.3301c0 2.61914 -0.954102 4.88379 -2.86816 6.79688c-1.91895 1.91309 -4.18262 2.87305 -6.79688 2.87305h-19.335c-2.61914 0 -4.88281 -0.958984 -6.79688 -2.87305
c-1.91406 -1.9082 -2.86816 -4.17773 -2.86816 -6.79688zM156.45 81.2158c1.9082 1.90625 2.86816 4.17676 2.86816 6.7959v19.3359c0 2.61328 -0.959961 4.87598 -2.86816 6.79492c-1.91895 1.90918 -4.18262 2.87598 -6.80176 2.87598h-19.3359
c-2.61914 0 -4.8877 -0.966797 -6.79688 -2.87598c-1.91895 -1.91309 -2.87305 -4.18164 -2.87305 -6.79492v-19.3359c0 -2.61914 0.953125 -4.88184 2.87305 -6.7959c1.90918 -1.91504 4.17773 -2.86816 6.79688 -2.86816h19.3359
c2.61914 0 4.88281 0.953125 6.80176 2.86816zM159.318 30.0049c0 2.61328 -0.959961 4.87695 -2.86816 6.7959c-1.91895 1.9082 -4.18262 2.86816 -6.80176 2.86816h-19.3359c-2.61914 0 -4.8877 -0.959961 -6.79688 -2.86816
c-1.91895 -1.91406 -2.87305 -4.18164 -2.87305 -6.7959v-19.335c0 -2.62402 0.953125 -4.88965 2.87305 -6.79785c1.90918 -1.91895 4.17773 -2.86816 6.79688 -2.86816h19.3359c2.61914 0 4.88281 0.949219 6.80176 2.86816
c1.9082 1.90332 2.86816 4.17285 2.86816 6.79785v19.335zM156.45 158.563c1.9082 1.9043 2.86816 4.17188 2.86816 6.7959v19.3301c0 2.61914 -0.959961 4.88379 -2.86816 6.79785c-1.91895 1.91211 -4.18262 2.87207 -6.80176 2.87207h-19.3359
c-2.61914 0 -4.8877 -0.958984 -6.79688 -2.87207c-1.91895 -1.90918 -2.87305 -4.17871 -2.87305 -6.79785v-19.3301c0 -2.62402 0.953125 -4.8877 2.87305 -6.7959c1.90918 -1.91895 4.17773 -2.87402 6.79688 -2.87402h19.3359
c2.61914 0 4.88281 0.955078 6.80176 2.87402zM156.45 235.906c1.9082 1.90332 2.86816 4.17285 2.86816 6.79688v19.3359c0 2.6123 -0.959961 4.87598 -2.86816 6.7959c-1.91895 1.90918 -4.18262 2.86914 -6.80176 2.86914h-19.3359
c-2.61914 0 -4.8877 -0.959961 -6.79688 -2.86914c-1.91895 -1.91309 -2.87305 -4.18359 -2.87305 -6.7959v-19.3359c0 -2.62402 0.953125 -4.88867 2.87305 -6.79688c1.90918 -1.91895 4.17773 -2.87402 6.79688 -2.87402h19.3359
c2.61914 0 4.88281 0.954102 6.80176 2.87402zM156.45 313.25c1.9082 1.90234 2.86816 4.17188 2.86816 6.7959v19.3369c0 2.61328 -0.959961 4.87695 -2.86816 6.79688c-1.91895 1.9082 -4.18262 2.86816 -6.80176 2.86816h-19.3359
c-2.61914 0 -4.8877 -0.959961 -6.79688 -2.86816c-1.91895 -1.91504 -2.87305 -4.18457 -2.87305 -6.79688v-19.3369c0 -2.62402 0.953125 -4.8877 2.87305 -6.7959c1.90918 -1.9209 4.17773 -2.86914 6.79688 -2.86914h19.3359
c2.61914 0 4.88281 0.948242 6.80176 2.86914zM236.662 88.0117v19.3359c0 2.61328 -0.959961 4.87598 -2.86914 6.79688c-1.91992 1.90723 -4.18848 2.87402 -6.80176 2.87402h-19.3359c-2.61914 0 -4.88281 -0.966797 -6.79688 -2.87402
c-1.91504 -1.91504 -2.86816 -4.18359 -2.86816 -6.79688v-19.3359c0 -2.61914 0.953125 -4.88184 2.86816 -6.7959c1.91406 -1.91406 4.17773 -2.86816 6.79688 -2.86816h19.3359c2.61816 0 4.88184 0.954102 6.80176 2.86816
c1.90918 1.90625 2.86914 4.17676 2.86914 6.7959zM236.662 165.359v19.3301c0 2.61914 -0.959961 4.88379 -2.86914 6.79785c-1.91992 1.91211 -4.18848 2.87207 -6.80176 2.87207h-19.3359c-2.61914 0 -4.88281 -0.958984 -6.79688 -2.87207
c-1.91504 -1.90918 -2.86816 -4.17871 -2.86816 -6.79785v-19.3301c0 -2.62402 0.953125 -4.8877 2.86816 -6.7959c1.91406 -1.91895 4.17773 -2.87402 6.79688 -2.87402h19.3359c2.61816 0 4.88184 0.955078 6.80176 2.87402c1.90918 1.9043 2.86914 4.1709 2.86914 6.7959
zM236.662 242.703v19.3359c0 2.6123 -0.959961 4.87598 -2.86914 6.7959c-1.91992 1.90918 -4.18848 2.86914 -6.80176 2.86914h-19.3359c-2.61914 0 -4.88281 -0.959961 -6.79688 -2.86914c-1.91504 -1.91309 -2.86816 -4.18359 -2.86816 -6.7959v-19.3359
c0 -2.62402 0.953125 -4.88867 2.86816 -6.79688c1.91406 -1.91895 4.17773 -2.87402 6.79688 -2.87402h19.3359c2.61816 0 4.88184 0.954102 6.80176 2.87402c1.90918 1.90332 2.86914 4.17285 2.86914 6.79688zM304.339 78.3477
c2.61328 0 4.87695 0.954102 6.79688 2.86816c1.91309 1.90625 2.86816 4.17676 2.86816 6.7959v19.3359c0 2.61328 -0.955078 4.87598 -2.86816 6.79492c-1.91992 1.90918 -4.18359 2.87598 -6.79688 2.87598h-19.3359c-2.61914 0 -4.88281 -0.966797 -6.7959 -2.87598
c-1.91406 -1.91309 -2.86914 -4.18164 -2.86914 -6.79492v-19.3359c0 -2.61914 0.955078 -4.88184 2.86914 -6.7959c1.91309 -1.91504 4.17676 -2.86816 6.7959 -2.86816h19.3359zM198.013 319.774c-0.566406 0.487305 -1.17188 0.887695 -1.71973 1.43262
c-4.92773 4.9209 -7.38574 10.8457 -7.38574 17.7754v11.3301v31.8691v40.6572c0 6.92969 2.46484 12.8555 7.38574 17.7764c4.9209 4.92188 10.8457 7.38477 17.7764 7.38477h83.8613c6.92969 0 12.8555 -2.46289 17.7754 -7.38477
c4.92773 -4.9209 7.38574 -10.8467 7.38574 -17.7764v-40.6582v-31.8691v-11.3291c0 -6.93066 -2.46387 -12.8555 -7.38574 -17.7764c-0.547852 -0.543945 -1.14746 -0.948242 -1.71973 -1.43164c-4.57715 -3.88965 -9.89746 -5.94824 -16.0557 -5.94824h-20.207h-43.4424
h-20.2119c-6.16406 0 -11.4854 2.05859 -16.0566 5.94824zM211.272 382.181h0.0107422v-31.8691v-1.26562v-7.26758c0 -1.51562 0.548828 -2.82422 1.65918 -3.92871c1.10352 -1.10938 2.41309 -1.65918 3.92773 -1.65918h11.1797
c1.50977 0 2.81934 0.549805 3.92871 1.65918c1.10449 1.10449 1.65918 2.41309 1.65918 3.92871v4.53223v4.00098v19.4189h44.7129v-19.4189v-4.00098v-4.53223c0 -1.51562 0.549805 -2.82422 1.65918 -3.92871c1.10449 -1.10938 2.41309 -1.65918 3.92871 -1.65918
h11.1797c1.50879 0 2.81738 0.549805 3.92773 1.65918c1.10449 1.10449 1.6582 2.41309 1.6582 3.92871v7.26758v1.26562v31.8691v37.8672c0 1.50879 -0.553711 2.81836 -1.6582 3.92773c-1.10352 1.10449 -2.41309 1.65918 -3.92773 1.65918h-11.1797
c-1.50977 0 -2.82422 -0.554688 -3.92871 -1.65918s-1.65918 -2.41895 -1.65918 -3.92773v-27.9531h-44.7236v27.9531c0 1.50879 -0.555664 2.81836 -1.65918 3.92773c-1.10449 1.10449 -2.41406 1.65918 -3.92871 1.65918h-11.1797
c-1.50977 0 -2.82422 -0.554688 -3.92871 -1.65918c-1.10352 -1.10449 -1.6582 -2.41895 -1.6582 -3.92773v-37.8672z" />
    <glyph glyph-name="uniF100" unicode="&#xf100;" 
d="M508.177 202.005c5.09766 -5.69824 5.09766 -14.3115 0 -20.0098c-4.57031 -5.09766 -114.497 -124.995 -252.177 -124.995s-247.606 119.897 -252.177 124.995c-5.09863 5.69824 -5.09863 14.3115 0 20.0098c4.57031 5.09766 114.495 124.995 252.177 124.995
s247.607 -119.897 252.177 -124.995zM256 87c57.8906 0 105 47.1094 105 105s-47.1094 105 -105 105s-105 -47.1094 -105 -105s47.1094 -105 105 -105zM271 222c0 -29.5225 28.5156 -52.3672 58.7217 -42.6416c-6.05371 -35.3242 -36.6973 -62.3584 -73.7217 -62.3584
c-41.3525 0 -75 33.6475 -75 75s33.6475 75 75 75c12.2549 0 23.6611 -3.23535 33.8867 -8.46973c-11.3955 -8.16504 -18.8867 -21.4404 -18.8867 -36.5303z" />
    <glyph glyph-name="uniF103" unicode="&#xf103;" 
d="M466.544 322.809c13.2852 -1.08203 23.7646 -12.0684 23.7529 -25.6133v-50.0645c0 -11.6064 -7.63965 -21.2529 -18.1084 -24.5312c2.11914 -85.3584 -0.450195 -175.787 -0.450195 -216.589c-1.60059 -14.875 -26.5713 -11.4492 -26.5713 -11.4492h-6.53516v-34.0977
c0 -13.5225 -13.9395 -24.4639 -31.1123 -24.4639c-17.1953 0 -31.123 10.9414 -31.123 24.4639v34.0977h-231.384v-34.0977c0 -13.5225 -13.9395 -24.4639 -31.1348 -24.4639c-17.1729 0 -31.1123 10.9414 -31.1123 24.4639v34.0977h-19.8887
s-21.2178 -5.23926 -21.2178 26.3457c-3.49316 40.915 -5.38672 123.186 -3.05371 202.041c-9.84863 3.66211 -16.9023 13.0488 -16.9023 24.1826v50.0645c0 13.2295 9.99512 24.0361 22.8291 25.5459c3.97754 40.0361 9.90527 71.7451 18.3564 85.2676
c34.5488 55.1924 338.839 51.4287 382.278 0c10.5361 -12.5078 17.1963 -44.3301 21.377 -85.2002zM137.203 400.673v-35.3486h233.649v35.3486h-233.649zM140.539 34.8232c18.3555 0 33.2188 14.874 33.2188 33.2197c0 18.333 -14.874 33.1963 -33.2188 33.1963
s-33.208 -14.8633 -33.208 -33.1963c0 -18.3457 14.8633 -33.2197 33.208 -33.2197zM369.602 34.8232c18.3447 0 33.2197 14.874 33.208 33.2197c0 18.333 -14.8633 33.1963 -33.208 33.1963s-33.2305 -14.8633 -33.2305 -33.1963
c0 -18.3457 14.8975 -33.2197 33.2305 -33.2197zM411.824 180.186v165.531h-315.593v-165.531h315.593z" />
  </font>
</defs></svg>
